CCTV1-A,http://live.hodtv.vip:25461/2058/2500/2
CCTV1-B,http://223.110.245.154/ott.js.chinamobile.com/PLTV/3/224/3221227634/index.m3u8
CCTV1-C,http://ott.js.chinamobile.com/PLTV/3/224/3221228075/index.m3u8
CCTV1-D,http://223.110.251.219:6610/gitv/live1/G_CCTV-1-HQ/G_CCTV-1-HQ/.m3u8?IASHttpSessionId=OTT2353820220130093317005929
CCTV1-E,http://223.110.244.212:6610/gitv/live1/G_CCTV-1-CQ/G_CCTV-1-CQ/
CCTV1,http://live.hodtv.vip:25461/2058/2500/2
CCTV2,http://live.hodtv.vip:25461/2058/2500/3
CCTV3,http://live.hodtv.vip:25461/2058/2500/4
CCTV4,http://live.hodtv.vip:25461/2058/2500/5
CCTV5,http://39.134.184.95:6610/hwltc.tv.cdn.zj.chinamobile.com/PLTV/88888888/224/3221228965/42330389.smil/index.m3u8?fmt=ts2hls
CCTV5+,http://39.134.71.75/ott.js.chinamobile.com/TVOD/3/224/3221227631/index.m3u8
CCTV6,http://live.hodtv.vip:25461/2058/2500/8
CCTV7,http://live.hodtv.vip:25461/2058/2500/9
CCTV8,http://live.hodtv.vip:25461/2058/2500/10
CCTV9,http://live.hodtv.vip:25461/2058/2500/11
CCTV10,http://live.hodtv.vip:25461/2058/2500/12
CCTV11,http://live.hodtv.vip:25461/2058/2500/13
CCTV12,http://live.hodtv.vip:25461/2058/2500/14
CCTV13,http://live.hodtv.vip:25461/2058/2500/15
CCTV14,http://live.hodtv.vip:25461/2058/2500/16
CCTV15,http://live.hodtv.vip:25461/2058/2500/17
CCTV16,http://live.hodtv.vip:25461/2058/2500/18
CCTV16 4K-A,http://ott.js.chinamobile.com/PLTV/3/224/3221228127/index.m3u8
CCTV16 4K-B,http://39.134.71.75/ott.js.chinamobile.com/TVOD/3/224/3221228168/index.m3u8
CCTV16 4K-C,http://ott.js.chinamobile.com/PLTV/3/224/3221228127/index.m3u8
CCTV16 4K-D,http://223.110.235.24/ott.js.chinamobile.com/PLTV/3/224/3221228127/index.m3u8
CCTV17,http://117.148.179.167/PLTV/88888888/224/3221231772/index.m3u8
CCTV1,http://117.148.179.155/PLTV/88888888/224/3221231468/index.m3u8
CCTV2,http://117.148.179.147/PLTV/88888888/224/3221231678/index.m3u8
CCTV3,http://117.148.179.183/PLTV/88888888/224/3221231682/index.m3u8
CCTV4,http://117.148.179.182/PLTV/88888888/224/3221231726/index.m3u8
CCTV5,http://182.151.211.171:808/hls/5/index.m3u8
CCTV5+,http://117.148.179.136/PLTV/88888888/224/3221231459/index.m3u8
CCTV6,http://117.148.179.153/PLTV/88888888/224/3221231724/index.m3u8
CCTV7,http://39.135.138.60:18890/PLTV/88888910/224/3221225624/index.m3u8
CCTV8,http://ott.js.chinamobile.com/TVOD/3/224/3221228079/index.m3u8
CCTV9,http://117.148.179.162/PLTV/88888888/224/3221231697/index.m3u8
CCTV10,http://117.148.179.164/PLTV/88888888/224/3221232492/index.m3u8
CCTV11,http://117.148.179.164/PLTV/88888888/224/3221231711/index.m3u8
CCTV12,http://117.148.179.150/PLTV/88888888/224/3221231660/index.m3u8
CCTV13,http://39.135.138.59:18890/PLTV/88888910/224/3221225638/index.m3u8
CCTV14,http://39.135.138.58:18890/TVOD/88888888/224/3221225640/index.m3u8
CCTV15,http://117.148.179.169/PLTV/88888888/224/3221231693/index.m3u8
CCTV16,http://liveop.cctv.cn/hls/CCTV16HD/playlist.m3u8
CCTV17,http://117.148.179.167/PLTV/88888888/224/3221231772/index.m3u8
湖南卫视,http://117.148.179.148/PLTV/88888888/224/3221230824/index.m3u8
浙江卫视,http://117.148.179.140/PLTV/88888888/224/3221229352/index.m3u8
江苏卫视,http://117.148.179.175/PLTV/88888888/224/3221231447/index.m3u8
东方卫视,http://39.135.138.59:18890/PLTV/88888910/224/3221225658/index.m3u8
北京卫视,http://117.148.179.168/PLTV/88888888/224/3221231732/index.m3u8
天津卫视,http://117.148.179.146/PLTV/88888888/224/3221228905/index.m3u8
广东卫视,http://117.148.179.141/PLTV/88888888/224/3221231891/index.m3u8
深圳卫视,http://39.135.138.58:18890/TVOD/88888888/224/3221225741/index.m3u8
东南卫视,http://117.148.179.160/PLTV/88888888/224/3221231414/index.m3u8
辽宁卫视,http://117.148.179.152/PLTV/88888888/224/3221231802/index.m3u8
山东卫视,http://117.148.179.137/PLTV/88888888/224/3221227909/index.m3u8
河南卫视,http://117.148.179.144/PLTV/88888888/224/3221231514/index.m3u8
河北卫视,http://117.148.179.179/PLTV/88888888/224/3221231411/index.m3u8
安徽卫视,http://117.148.179.177/PLTV/88888888/224/3221230215/index.m3u8
湖北卫视,http://117.148.179.142/PLTV/88888888/224/3221231888/index.m3u8
江西卫视,http://117.148.179.141/PLTV/88888888/224/3221231964/index.m3u8
贵州卫视,http://117.148.179.160/PLTV/88888888/224/3221231676/index.m3u8
重庆卫视,http://117.148.179.155/PLTV/88888888/224/3221231508/index.m3u8
海南卫视,http://39.134.71.75/ott.js.chinamobile.com/TVOD/3/224/3221228139/index.m3u8
四川卫视,http://117.148.179.142/PLTV/88888888/224/3221231885/index.m3u8
吉林卫视,http://117.148.179.164/PLTV/88888888/224/3221231472/index.m3u8
云南卫视,http://117.148.179.141/PLTV/88888888/224/3221231499/index.m3u8
黑龙江卫视,http://117.148.179.141/PLTV/88888888/224/3221231967/index.m3u8
内蒙古卫视,http://live9.m2oplus.nmtv.cn/nmgws/hd/live.m3u8
广西卫视,http://117.148.179.164/PLTV/88888888/224/3221231600/index.m3u8
甘肃卫视,http://117.148.179.158/PLTV/88888888/224/3221231393/index.m3u8
陕西卫视,http://129.226.107.32/zycfcdn.gdwlcloud.com/PLTV/88888888/224/3221225498/index.m3u8
山西卫视,http://liveflash.sxrtv.com/live/sxwshd.m3u8
宁夏卫视,http://39.134.93.229:6610/000000001000/nxweishi/1.m3u8?IASHttpSessionId=
青海卫视,http://117.148.179.151/PLTV/88888888/224/3221231435/index.m3u8
新疆卫视,http://117.148.179.183/PLTV/88888888/224/3221231451/index.m3u8
西藏卫视,http://117.148.179.162/PLTV/88888888/224/3221231558/index.m3u8
CCTV1,http://ott.js.chinamobile.com/PLTV/3/224/3221228245/index.m3u8
CCTV2,http://ott.js.chinamobile.com/PLTV/3/224/3221228248/index.m3u8
CCTV3,http://ott.js.chinamobile.com/PLTV/3/224/3221228174/index.m3u8
CCTV4,http://ott.js.chinamobile.com/PLTV/3/224/3221228142/index.m3u8
CCTV5,http://ott.js.chinamobile.com/PLTV/3/224/3221228179/index.m3u8
CCTV5+,http://ott.js.chinamobile.com/PLTV/3/224/3221228176/index.m3u8
CCTV6,http://ott.js.chinamobile.com/PLTV/3/224/3221228123/index.m3u8
CCTV7,http://ott.js.chinamobile.com/PLTV/3/224/3221227690/index.m3u8
CCTV8,http://ott.js.chinamobile.com/PLTV/3/224/3221228194/index.m3u8
CCTV9,http://ott.js.chinamobile.com/PLTV/3/224/3221227614/index.m3u8
CCTV10,http://ott.js.chinamobile.com/PLTV/3/224/3221227620/index.m3u8
CCTV11,http://ott.js.chinamobile.com/PLTV/3/224/3221227524/index.m3u8
CCTV12,http://ott.js.chinamobile.com/PLTV/3/224/3221227637/index.m3u8
CCTV13,http://ott.js.chinamobile.com/PLTV/3/224/3221228224/index.m3u8
CCTV14,http://ott.js.chinamobile.com/PLTV/3/224/3221227693/index.m3u8
CCTV15,http://ott.js.chinamobile.com/PLTV/3/224/3221227538/index.m3u8
CCTV16,http://111.11.121.184:6610/030000001001/HD-4000k-1080P-cctv16/1.m3u8?channel-id=ystenlive
CCTV17,http://ott.js.chinamobile.com/PLTV/3/224/3221227592/index.m3u8
湖南卫视,http://ott.js.chinamobile.com/PLTV/3/224/3221228177/index.m3u8
浙江卫视,http://ott.js.chinamobile.com/PLTV/3/224/3221228180/index.m3u8
江苏卫视,http://ott.js.chinamobile.com/PLTV/3/224/3221228251/index.m3u8
东方卫视,http://ott.js.chinamobile.com/PLTV/3/224/3221228145/index.m3u8
北京卫视,http://ott.js.chinamobile.com/PLTV/3/224/3221227436/index.m3u8
天津卫视,http://ott.js.chinamobile.com/PLTV/3/224/3221227407/index.m3u8
广东卫视,http://ott.js.chinamobile.com/PLTV/3/224/3221227591/index.m3u8
深圳卫视,http://ott.js.chinamobile.com/PLTV/3/224/3221227624/index.m3u8
东南卫视,http://ott.js.chinamobile.com/PLTV/3/224/3221227553/index.m3u8
辽宁卫视,http://ott.js.chinamobile.com/PLTV/4/224/3221227676/index.m3u8
山东卫视,http://ott.js.chinamobile.com/PLTV/3/224/3221227258/index.m3u8
河南卫视,http://ott.js.chinamobile.com/PLTV/3/224/3221228221/index.m3u8
河北卫视,http://ott.js.chinamobile.com/PLTV/3/224/3221228106/index.m3u8
安徽卫视,http://39.134.71.75/ott.js.chinamobile.com/TVOD/3/224/3221227643/index.m3u8
湖北卫视,http://ott.js.chinamobile.com/PLTV/3/224/3221227565/index.m3u8
江西卫视,http://ott.js.chinamobile.com/PLTV/3/224/3221228109/index.m3u8
贵州卫视,http://ott.js.chinamobile.com/PLTV/3/224/3221228136/index.m3u8
重庆卫视,http://ott.js.chinamobile.com/PLTV/3/224/3221228133/index.m3u8
海南卫视,http://ott.js.chinamobile.com/PLTV/3/224/3221228139/index.m3u8
四川卫视,http://39.136.12.3:6410/PLTV/88888888/224/3221225757//01.m3u8?fmt=ts2hls
吉林卫视,http://39.134.71.75/ott.js.chinamobile.com/TVOD/3/224/3221228130/index.m3u8
云南卫视,http://hwzbout.yunshicloud.com/8xughf/e0bx15.m3u8
黑龙江卫视,http://ott.js.chinamobile.com/PLTV/3/224/3221227252/index.m3u8
内蒙古卫视,http://live9.m2oplus.nmtv.cn/nmgws/hd/live.m3u8
广西卫视,http://ott.js.chinamobile.com/PLTV/3/224/3221228183/index.m3u8
甘肃卫视,http://ott.js.chinamobile.com/PLTV/3/224/3221227568/index.m3u8
陕西卫视,http://129.226.107.32/zycfcdn.gdwlcloud.com/PLTV/88888888/224/3221225498/index.m3u8
山西卫视,http://liveflash.sxrtv.com/live/sxwshd.m3u8
宁夏卫视,http://39.134.93.229:6610/000000001000/nxweishi/1.m3u8?IASHttpSessionId=
青海卫视,http://ott.js.chinamobile.com/PLTV/3/224/3221227554/index.m3u8
新疆卫视,http://ott.js.chinamobile.com/PLTV/3/224/3221227627/index.m3u8
西藏卫视,http://ott.js.chinamobile.com/PLTV/3/224/3221227562/index.m3u8
CCTV1,http://ott.js.chinamobile.com/PLTV/3/224/3221227725/index.m3u8
CCTV2,http://ott.js.chinamobile.com/PLTV/3/224/3221227708/index.m3u8
CCTV3,http://ott.js.chinamobile.com/PLTV/3/224/3221227650/index.m3u8
CCTV4,http://ott.js.chinamobile.com/PLTV/3/224/3221227658/index.m3u8
CCTV5,http://ott.js.chinamobile.com/PLTV/3/224/3221227661/index.m3u8
CCTV5+,http://ott.js.chinamobile.com/PLTV/3/224/3221227714/index.m3u8
CCTV6,http://ott.js.chinamobile.com/PLTV/3/224/3221227664/index.m3u8
CCTV7,http://ott.js.chinamobile.com/PLTV/3/224/3221227690/index.m3u8
CCTV8,http://ott.js.chinamobile.com/PLTV/3/224/3221227667/index.m3u8
CCTV9,http://ott.js.chinamobile.com/PLTV/3/224/3221227659/index.m3u8
CCTV10,http://ott.js.chinamobile.com/PLTV/3/224/3221227717/index.m3u8
CCTV11,http://ott.js.chinamobile.com/PLTV/3/224/3221227720/index.m3u8
CCTV12,http://ott.js.chinamobile.com/PLTV/3/224/3221227655/index.m3u8
CCTV13,http://ott.js.chinamobile.com/PLTV/3/224/3221228224/index.m3u8
CCTV14,http://ott.js.chinamobile.com/PLTV/3/224/3221227656/index.m3u8
CCTV15,http://ott.js.chinamobile.com/PLTV/3/224/3221227723/index.m3u8
CCTV16,http://ott.js.chinamobile.com/TVOD/3/224/3221228144/index.m3u8
CCTV17,http://ott.js.chinamobile.com/PLTV/3/224/3221227726/index.m3u8
湖南卫视,http://ott.js.chinamobile.com/PLTV/3/224/3221227735/index.m3u8
浙江卫视,http://ott.js.chinamobile.com/PLTV/3/224/3221227744/index.m3u8
江苏卫视,http://ott.js.chinamobile.com/PLTV/3/224/3221227668/index.m3u8
东方卫视,http://ott.js.chinamobile.com/PLTV/3/224/3221227732/index.m3u8
北京卫视,http://ott.js.chinamobile.com/PLTV/3/224/3221227652/index.m3u8
天津卫视,http://ott.js.chinamobile.com/PLTV/3/224/3221227741/index.m3u8
广东卫视,http://ott.js.chinamobile.com/PLTV/3/224/3221227673/index.m3u8
深圳卫视,http://ott.js.chinamobile.com/PLTV/3/224/3221227677/index.m3u8
东南卫视,http://ott.js.chinamobile.com/PLTV/3/224/3221227670/index.m3u8
辽宁卫视,http://ott.js.chinamobile.com/PLTV/3/224/3221227676/index.m3u8
山东卫视,http://ott.js.chinamobile.com/PLTV/3/224/3221227671/index.m3u8
河南卫视,http://ott.js.chinamobile.com/PLTV/3/224/3221228221/index.m3u8
河北卫视,http://111.11.121.184:6610/030000001001/hebeistv/1.m3u8?channel-id=ystenlive
安徽卫视,http://ott.js.chinamobile.com/PLTV/3/224/3221227653/index.m3u8
湖北卫视,http://ott.js.chinamobile.com/PLTV/3/224/3221227665/index.m3u8
江西卫视,http://ott.js.chinamobile.com/PLTV/3/224/3221227738/index.m3u8
贵州卫视,http://111.11.121.184:6610/030000001001/guizhoustv/1.m3u8?channel-id=ystenlive
重庆卫视,http://39.135.138.59:18890/PLTV/88888910/224/3221225734/index.m3u8
海南卫视,http://39.135.138.60:18890/PLTV/88888910/224/3221225722/index.m3u8
四川卫视,http://ott.js.chinamobile.com/TVOD/3/224/3221227556/index.m3u8
吉林卫视,http://39.134.71.75/ott.js.chinamobile.com/TVOD/3/224/3221228130/index.m3u8
云南卫视,http://hwzbout.yunshicloud.com/8xughf/e0bx15.m3u8
黑龙江卫视,http://ott.js.chinamobile.com/PLTV/3/224/3221227662/index.m3u8
内蒙古卫视,http://live9.m2oplus.nmtv.cn/nmgws/hd/live.m3u8
广西卫视,http://39.134.71.75/ott.js.chinamobile.com/TVOD/3/224/3221228183/index.m3u8
甘肃卫视,http://223.110.246.66/ott.js.chinamobile.com/PLTV/4/224/3221225846/index.m3u8
陕西卫视,http://129.226.107.32/zycfcdn.gdwlcloud.com/PLTV/88888888/224/3221225498/index.m3u8
山西卫视,http://liveflash.sxrtv.com/live/sxwshd.m3u8
宁夏卫视,http://39.134.93.229:6610/000000001000/nxweishi/1.m3u8?IASHttpSessionId=
青海卫视,http://live.geermurmt.com/qhws/sd/live.m3u8
新疆卫视,http://ott.js.chinamobile.com/PLTV/3/224/3221227627/index.m3u8
西藏卫视,http://ott.js.chinamobile.com/PLTV/3/224/3221227562/index.m3u8
纯享4K,http://39.134.71.75/ott.js.chinamobile.com/TVOD/3//224/3221228242/index.m3u8
CCTV 4K,http://39.134.184.95:6610/hwltc.tv.cdn.zj.chinamobile.com/PLTV/88888888/224/3221229373/1/index.m3u8?fmt=ts2hls
CCTV 4K,http://ott.js.chinamobile.com/TVOD/3/224/3221228242/index.m3u8
CCTV 4K,https://p.ggiptv.com/v/4k.m3u8
冬奥纪实,http://down.btvcloud.com:80/8k2021zhibo/zhibo8K2021.m3u8
4K影视,http://ott.js.chinamobile.com/PLTV/3/224/3221228141/index.m3u8
新华社CNC中文,http://source07.v.news.cn/live/CNC_CN/playlist.m3u8
新华社CNC英文,http://source07.v.news.cn/live/CNC_EN/playlist.m3u8
黑莓电竞,http://39.134.66.66/PLTV/88888888/224/3221225559/index.m3u8
黑莓电竞SP,http://111.11.121.184:6610/030000001001/wmyx/1.m3u8?channel-id=ystenlive
黑莓电影,http://111.11.121.184:6610/030000001001/jdianying/1.m3u8?channel-id=ystenlive
黑莓电影SP,http://223.110.245.153/ott.js.chinamobile.com/PLTV/3/224/3221225567/index.m3u8
黑莓动画,http://183.207.249.7/PLTV/3/224/3221225555/index.m3u8
黑莓动画SP,http://111.11.121.184:6610/030000001001/donghuawg/1.m3u8?channel-id=ystenlive
电影轮播1,http://121.51.249.99/txdirect.hls.huya.com/src/1448738325-1448738325-6222283726336819200-3048991600-10057-A-0-1.m3u8
电影轮播2,http://121.51.249.99/txdirect.hls.huya.com/src/1099531752785-1099531752785-86436255486705664-2199063629026-10057-A-0-1.m3u8
电影轮播3,http://121.51.249.99/txdirect.hls.huya.com/src/1423782054-1423782054-6115097358561705984-2847687564-10057-A-0-1.m3u8
电影轮播4,http://121.51.249.99/txdirect.hls.huya.com/src/1423787882-1423787882-6115122389631107072-2847699220-10057-A-0-1.m3u8
CHC动作电影,http://39.134.19.252:6610/yinhe/2/ch00000090990000002055/index.m3u8?virtualDomain=yinhe.live_hls.zte.com
CHC家庭影院,http://39.134.19.252:6610/yinhe/2/ch00000090990000002085/index.m3u8?virtualDomain=yinhe.live_hls.zte.com
CHC高清电影,http://39.134.19.252:6610/yinhe/2/ch00000090990000002065/index.m3u8?virtualDomain=yinhe.live_hls.zte.com
SiTV动漫秀场,http://shbu.live.bestvcdn.com.cn:8080/live/program/live/dmxchd/4000000/mnf.m3u8
SiTV都市剧场,http://shbu.live.bestvcdn.com.cn:8080/live/program/live/dsjchd/4000000/mnf.m3u8
SiTV都市剧场SP,http://140.207.241.3:8080/live/program/live/dsjchd/4000000/mnf.m3u8
SiTV动漫秀场,http://140.207.241.2:8080/live/program/live/dmxchd/4000000/mnf.m3u8
SiTV欢笑剧场,http://shbu.live.bestvcdn.com.cn:8080/live/program/live/hxjchd/4000000/mnf.m3u8
SiTV动漫秀场,http://223.110.245.146/ott.js.chinamobile.com/PLTV/3/224/3221227774/index.m3u8
SiTV极速汽车,http://shbu.live.bestvcdn.com.cn:8080/live/program/live/jsqchd/4000000/mnf.m3u8
SiTV劲爆体育,http://140.207.241.2:8080/live/program/live/jbtyhd/4000000/mnf.m3u8
SiTV新视觉,http://shbu.live.bestvcdn.com.cn:8080/live/program/live/xsjhd/4000000/mnf.m3u8
SiTV劲爆体育,http://shbu.live.bestvcdn.com.cn:8080/live/program/live/jbtyhd/4000000/mnf.m3u8
SiTV游戏风云,http://shbu.live.bestvcdn.com.cn:8080/live/program/live/yxfyhd/4000000/mnf.m3u8
SiTV劲爆体育,http://shbu.live.bestvcdn.com.cn:8080/live/program/live/jbtyhd/2300000/mnf.m3u8
SiTV魅力足球,http://shbu.live.bestvcdn.com.cn:8080/live/program/live/mlyyhd/4000000/mnf.m3u8
SiTV生活时尚,http://shbu.live.bestvcdn.com.cn:8080/live/program/live/shsshd/4000000/mnf.m3u8
SiTV全纪实,http://shbu.live.bestvcdn.com.cn:8080/live/program/live/qjshd/4000000/mnf.m3u8
SiTV幸福彩,http://shbu.live.bestvcdn.com.cn:8080/live/program/live/xfchd/4000000/mnf.m3u8
NewTV超级电影,http://39.135.138.60:18890/PLTV/88888910/224/3221225766/index.m3u8
NewTV动作电影,http://39.135.138.60:18890/PLTV/88888910/224/3221225671/index.m3u8
NewTV超级综艺,http://39.135.138.60:18890/PLTV/88888910/224/3221225620/index.m3u8
NewTV金牌综艺,http://39.135.138.60:18890/PLTV/88888910/224/3221225711/index.m3u8
NewTV超级电视剧,http://39.135.138.60:18890/PLTV/88888910/224/3221225765/index.m3u8
NewTV惊悚悬疑,http://39.135.138.60:18890/PLTV/88888910/224/3221225717/index.m3u8
NewTV爱情喜剧,http://39.135.138.60:18890/PLTV/88888910/224/3221225748/index.m3u8
NewTV古装剧场,http://39.135.138.60:18890/PLTV/88888910/224/3221225678/index.m3u8
NewTV家庭剧场,http://39.135.138.60:18890/PLTV/88888910/224/3221225713/index.m3u8
NewTV精品大剧,http://39.135.138.60:18890/PLTV/88888910/224/3221225714/index.m3u8
NewTV军旅剧场,http://39.135.138.60:18890/PLTV/88888910/224/3221225669/index.m3u8
NewTV超级体育,http://39.135.138.60:18890/PLTV/88888910/224/3221225648/index.m3u8
NewTV精品体育,http://39.135.138.60:18890/PLTV/88888910/224/3221225709/index.m3u8
NewTV精品纪录,http://39.135.138.60:18890/PLTV/88888910/224/3221225710/index.m3u8
NewTV吉林频道,http://39.135.138.60:18890/PLTV/88888910/224/3221226189/index.m3u8
NewTV四川频道,http://39.135.138.60:18890/PLTV/88888910/224/3221226187/index.m3u8
NewTV山东频道,http://39.135.138.60:18890/PLTV/88888910/224/3221226184/index.m3u8
NewTV广东频道,http://39.135.138.60:18890/PLTV/88888910/224/3221226185/index.m3u8
NewTV广西频道,http://39.135.138.60:18890/PLTV/88888910/224/3221226186/index.m3u8
NewTV江西频道,http://39.135.138.60:18890/PLTV/88888910/224/3221225979/index.m3u8
NewTV云南频道,http://39.135.138.60:18890/PLTV/88888910/224/3221226188/index.m3u8
NewTV黑龙江台,http://39.135.138.60:18890/PLTV/88888910/224/3221226192/index.m3u8
NewTV农业致富,http://39.135.138.60:18890/PLTV/88888910/224/3221225670/index.m3u8
NewTV武博世界,http://39.135.138.60:18890/PLTV/88888910/224/3221225656/index.m3u8
NewTV潮妈辣婆,http://39.135.138.60:18890/PLTV/88888910/224/3221225708/index.m3u8
NewTV炫舞未来,http://39.135.138.60:18890/PLTV/88888910/224/3221225707/index.m3u8
NewTV健康有约,http://39.135.138.60:18890/PLTV/88888910/224/3221225666/index.m3u8
NewTV中国功夫,http://39.135.138.60:18890/PLTV/88888910/224/3221225660/index.m3u8
NewTV军事评论,http://39.135.138.60:18890/PLTV/88888910/224/3221225757/index.m3u8
北京 I 北京影视,https://hsplay-360.v.btime.com/live_btime/btv_sn_20170706_s4/index.m3u8
北京 I 北京影视SP,http://hsplay-360.v.btime.com/live_btime/btv_sn_20170706_s4/index.m3u8?time=
北京 I 北京文艺,https://hsplay-360.v.btime.com/live_btime/btv_sn_20170706_s2/index.m3u8
北京 I 北京文艺SP,http://hsplay-360.v.btime.com/live_btime/btv_sn_20170706_s2/index.m3u8?time=
北京 I 北京新闻,https://hsplay-360.v.btime.com/live_btime/btv_sn_20170706_s9/index.m3u8
北京 I 北京新闻SP,http://hsplay-360.v.btime.com/live_btime/btv_sn_20170706_s9/index.m3u8?time=
北京 I 北京科教,http://hsplay-360.v.btime.com/live_btime/btv_sn_20170706_s3/index.m3u8?time=
北京 I 北京科教SP,https://hsplay-360.v.btime.com/live_btime/btv_sn_20170706_s3/index.m3u8
北京 I 北京财经,http://hsplay-360.v.btime.com/live_btime/btv_sn_20170706_s5/index.m3u8?time=
北京 I 北京财经SP,https://hsplay-360.v.btime.com/live_btime/btv_sn_20170706_s5/index.m3u8
北京 I 北京生活,http://hsplay-360.v.btime.com/live_btime/btv_sn_20170706_s7/index.m3u8?time=
北京 I 北京生活SP,https://hsplay-360.v.btime.com/live_btime/btv_sn_20170706_s7/index.m3u8
北京 I 北京青年,http://hsplay-360.v.btime.com/live_btime/btv_sn_20170706_s8/index.m3u8?time=
北京 I 北京青年SP,https://hsplay-360.v.btime.com/live_btime/btv_sn_20170706_s8/index.m3u8
北京 I 北京冬奥,http://39.134.115.163:8080/PLTV/88888910/224/3221225675/index.m3u8
北京 I 北京点掌财经,http://cclive.aniu.tv/live/anzb.m3u8
上海 I 上海新闻综合,http://183.207.255.188/live/program/live/xwzhhd/4000000/mnf.m3u8
上海 I 上海都市频道,http://183.207.255.188/live/program/live/ylpdhd/4000000/mnf.m3u8
上海 I 上海外语频道,http://183.207.255.188/live/program/live/wypdhd/4000000/mnf.m3u8
上海 I 上海东方影视,http://140.207.241.2:8080/live/program/live/dsjpdhd/4000000/mnf.m3u8
上海 I 上海五星体育,http://140.207.241.2:8080/live/program/live/ssty/4000000/mnf.m3u8
上海 I 上海五星体育SP,http://shbu.live.bestvcdn.com.cn:8080/live/program/live/ssty/2300000/mnf.m3u8
上海 I 上海五星体育SP1,http://183.207.255.188/live/program/live/ssty/4000000/mnf.m3u8
上海 I 上海第一财经,http://140.207.241.3:8080/live/program/live/dycjhd/4000000/mnf.m3u8
上海 I 上海纪实人文,http://183.207.255.188/live/program/live/jspdhd/4000000/mnf.m3u8
上海 I 上海纪实人文SP,http://183.207.255.188/live/program/live/jspdhd/4000000/mnf.m3u8
上海 I 上海游戏风云,http://shbu.live.bestvcdn.com.cn:8080/live/program/live/yxfyhd/4000000/mnf.m3u8
上海 I 上海哈哈炫动,http://iptv.tvfix.org/hls/hhxdhd.m3u8
上海 I 上海欢笑剧场,http://shbu.live.bestvcdn.com.cn:8080/live/program/live/hxjchd/4000000/mnf.m3u8
上海 I 上海点掌财经,http://cclive2.aniu.tv/live/anzb.m3u8
上海 I 上海购物,http://ocj2.kksmg.com/ocj2/ocj2.m3u8
上海 I 上海生活,http://183.207.255.188/live/program/live/shsshd/4000000/mnf.m3u8
广东 I 广东珠江,http://111.12.101.23:6610/PLTV/77777777/224/3221225717/index.m3u8?
广东 I 广东珠江SP,http://39.135.32.28:6610/000000001000/1000000004000011655/1.m3u8?
广东 I 广东体育,http://112.74.200.9:88/tv000000/m3u8.php?/iTouchTV/1184
广东 I 广东经济科教,http://112.74.200.9:88/tv000000/m3u8.php?/iTouchTV/1196
广东 I 广东国际,http://112.74.200.9:88/tv000000/m3u8.php?/iTouchTV/1191
广东 I 广东少儿,http://112.74.200.9:88/tv000000/m3u8.php?/iTouchTV/1200
广东 I 广东新闻,http://112.74.200.9:88/tv000000/m3u8.php?/iTouchTV/1186
广东 I 广东影视,http://112.74.200.9:88/tv000000/m3u8.php?/iTouchTV/1199
广东 I 广东公共,http://112.74.200.9:88/tv000000/m3u8.php?/iTouchTV/1185
岭南戏曲,http://szlive.grtn.cn/lnxq/sd/live.m3u8
广东 I 深圳公共频道,http://ye23.win/iptv/sztv.php?id=4
广东 I 深圳财经生活,http://ye23.win/iptv/sztv.php?id=5
广东 I 深圳少儿频道,http://ye23.win/iptv/sztv.php?id=7
广东 I 深圳蛇口,http://218.17.99.211:82/hls/d4encs75.m3u8
广东 I 深圳蛇口SP,http://218.17.99.211:5080/hls/ttsw6ccn.m3u8
广东 I 深圳生活,http://hls-ott-zhibo.wasu.tv/live/452/index.m3u8
广东 I 潮安综合,http://chaoan.chaoantv.com:8278/live/chaoanzongyi.m3u8
广东 I 潮安影视,http://chaoan.chaoantv.com:8278/live/chaoanyingshi.m3u8
福建 I 福州综合,http://live.zohi.tv/video/s10001-FZTV-1/index.m3u8
福建 I 福州影视,http://live.zohi.tv/video/s10001-yspd-2/index.m3u8
福建 I 福州生活,http://live.zohi.tv/video/s10001-shpd-3/index.m3u8
福建 I 福州少儿,http://live.zohi.tv/video/s10001-sepd-4/index.m3u8
福建 I 龙岩综合,http://live.lytv.net.cn/zhpwd/hd/live.m3u8
福建 I 龙岩公共,http://live.lytv.net.cn/ggpd/sd/live.m3u8
福建 I 新罗电视一套,http://stream.lyxltv.com/xltv/sd/live.m3u8
福建 I 新罗电视二套,http://stream.lyxltv.com/xinluotv/sd/live.m3u8
福建 I 三明新闻综合,http://stream.smntv.cn/smtv1/sd/live.m3u8
福建 I 三明公共频道,http://stream.smntv.cn/smtv2/sd/live.m3u8
浙江 I 浙江民生休闲,http://hw-m-l.cztv.com/channels/lantian/channel06/720p.m3u8
浙江 I 浙江民生休闲SP,http://hw-m-l.cztv.com/channels/lantian/channel06/1080p.m3u8
浙江 I 浙江影视娱乐,http://hw-m-l.cztv.com/channels/lantian/channel05/720p.m3u8
浙江 I 浙江影视娱乐SP,http://yd-m-l.cztv.com/channels/lantian/channel05/1080p.m3u8
浙江 I 浙江教科影视,http://hw-m-l.cztv.com/channels/lantian/channel04/720p.m3u8
浙江 I 浙江教科影视SP,http://yd-m-l.cztv.com/channels/lantian/channel04/1080p.m3u8
浙江 I 浙江少儿频道,http://hw-m-l.cztv.com/channels/lantian/channel08/720p.m3u8
浙江 I 浙江少儿频道SP,http://hw-m-l.cztv.com/channels/lantian/channel08/1080p.m3u8
浙江 I 浙江公共新闻,http://hw-m-l.cztv.com/channels/lantian/channel07/720p.m3u8
浙江 I 浙江公共新闻SP,http://hw-m-l.cztv.com/channels/lantian/channel07/1080p.m3u8
浙江 I 浙江国际频道,http://hw-m-l.cztv.com/channels/lantian/channel10/720p.m3u8
浙江 I 浙江国际频道SP,http://hw-m-l.cztv.com/channels/lantian/channel10/1080p.m3u8
浙江 I 浙江钱江都市,http://hw-m-l.cztv.com/channels/lantian/channel02/720p.m3u8
浙江 I 浙江钱江都市SP,http://hw-m-l.cztv.com/channels/lantian/channel02/1080p.m3u8
浙江 I 浙江经视频道,http://hw-m-l.cztv.com/channels/lantian/channel03/720p.m3u8
浙江 I 浙江经视频道SP,http://yd-m-l.cztv.com/channels/lantian/channel03/1080p.m3u8
浙江 I 浙江留学世界,http://hw-m-l.cztv.com/channels/lantian/channel09/720p.m3u8
浙江 I 浙江留学世界SP,http://hw-m-l.cztv.com/channels/lantian/channel09/1080p.m3u8
浙江 I 杭州综合频道,http://117.148.179.179/PLTV/88888888/224/3221229307/index.m3u8
浙江 I 杭州明珠频道,http://117.148.179.179/PLTV/88888888/224/3221229310/index.m3u8
浙江 I 杭州生活频道,http://117.148.179.179/PLTV/88888888/224/3221229313/index.m3u8
浙江 I 杭州影视频道,http://117.148.179.179/PLTV/88888888/224/3221229377/index.m3u8
浙江 I 杭州青少体育,http://117.148.179.179/PLTV/88888888/224/3221229316/index.m3u8
浙江 I 舟山新闻综合,http://live.wifizs.cn/xwzh/sd/live.m3u8
浙江 I 舟山公共生活,http://live.wifizs.cn/ggsh/sd/live.m3u8
浙江 I 舟山群岛旅游,http://live.wifizs.cn/qdly/sd/live.m3u8
浙江 I 舟山普陀,http://l.cztvcloud.com/channels/lantian/SXputuo1/720p.m3u8
浙江 I 萧山新闻综合,http://l.cztvcloud.com/channels/lantian/SXxiaoshan1/720p.m3u8
浙江 I 萧山生活频道,http://l.cztvcloud.com/channels/lantian/SXxiaoshan2/720p.m3u8
浙江 I 新昌新闻综合,http://l.cztvcloud.com/channels/lantian/SXxinchang1/720p.m3u8
浙江 I 新昌休闲影视,http://l.cztvcloud.com/channels/lantian/SXxinchang2/720p.m3u8
江苏 I 江苏教育,http://183.207.249.11:80/PLTV/4/224/3221225923/index.m3u8
江苏 I 江苏公共,http://183.207.248.11/PLTV/4/224/3221225925/index.m3u8
江苏 I 江苏城市,http://183.207.248.13:80/PLTV/4/224/3221225929/index.m3u8
江苏 I 江苏体育,http://183.207.248.71/gitv/live1/G_JSTY/G_JSTY
江苏 I 江苏影视,http://183.207.248.13:80/PLTV/4/224/3221225937/index.m3u8
江苏 I 江苏影视SP,http://183.207.249.11:80/PLTV/4/224/3221225937/index.m3u8
江苏 I 南京新闻综合,http://live.nbs.cn/channels/njtv/xwzh/m3u8:500k/live.m3u8
江苏 I 南京影视,http://223.110.243.162/ott.js.chinamobile.com/PLTV/3/224/3221227719/index.m3u8
江苏 I 南京教科,http://live.nbs.cn/channels/njtv/jkpd/m3u8:500k/live.m3u8
江苏 I 南京生活,http://live.nbs.cn/channels/njtv/shpd/m3u8:500k/live.m3u8
江苏 I 南京娱乐,http://live.nbs.cn/channels/njtv/ylpd/m3u8:500k/live.m3u8
江苏 I 南京十八,http://live.nbs.cn/channels/njtv/sbpd/m3u8:500k/live.m3u8
江苏 I 南京信息,http://live.nbs.cn/channels/njtv/xxpd/m3u8:500k/live.m3u8
江苏 I 徐州·1,http://223.110.245.165/ott.js.chinamobile.com/PLTV/3/224/3221225945/index.m3u8
江苏 I 徐州·2,http://223.110.245.167/ott.js.chinamobile.com/PLTV/3/224/3221225947/index.m3u8
江苏 I 徐州·3,http://223.110.245.151/ott.js.chinamobile.com/PLTV/3/224/3221225949/index.m3u8
江苏 I 常州新闻,http://223.110.245.165/ott.js.chinamobile.com/PLTV/3/224/3221227752/index.m3u8
江苏 I 常州都市,http://223.110.245.150/ott.js.chinamobile.com/PLTV/3/224/3221227755/index.m3u8
江苏 I 常州生活,http://223.110.243.141/ott.js.chinamobile.com/PLTV/3/224/3221227816/index.m3u8
江苏 I 常州公共,http://223.110.245.158/ott.js.chinamobile.com/PLTV/3/224/3221227772/index.m3u8
江苏 I 靖江电视台,http://58.222.151.43:1935/live/xwzhpc/playlist.m3u8
江苏 I 吴江综合台,http://30515.hlsplay.aodianyun.com/lms_30515/tv_channel_239.m3u8
江苏 I 张家港综合,http://3gvod.zjgonline.com.cn:1935/live/xinwenzonghe2/playlist.m3u8
江苏 I 张家港民生,http://3gvod.zjgonline.com.cn:1935/live/shehuishenghuo2/playlist.m3u8
河北 I 河北影视,http://live6.plus.hebtv.com/hbysx/hd/live.m3u8
河北 I 河北都市,http://live3.plus.hebtv.com/hbdsx/hd/live.m3u8
河北 I 河北公共,http://live7.plus.hebtv.com/hbggx/hd/live.m3u8
河北 I 河北经济,http://live2.plus.hebtv.com/jjshx/hd/live.m3u8
河北 I 河北少儿,http://live6.plus.hebtv.com/sekjx/hd/live.m3u8
河北 I 衡水新闻综合,http://hls.hsrtv.cn/hls/hstv1.m3u8
河北 I 黄骅一套,http://hbhh.chinashadt.com:2111/live/hhtv.stream/playlist.m3u8
河北 I 黄骅二套,http://hbhh.chinashadt.com:2111/live/hhtv2.stream/playlist.m3u8
河北 I 黄骅渤海新区,http://hbhh.chinashadt.com:2111/live/bhtv.stream/playlist.m3u8
河南 I 河南新闻,http://player.521fanli.cn/1691/henan/henanm3u8.php?id=hntv6
河南 I 河南都市,http://player.521fanli.cn/1691/henan/henanm3u8.php?id=hntv2
河南 I 河南民生,http://player.521fanli.cn/1691/henan/henanm3u8.php?id=hntv3
河南 I 河南公共,http://player.521fanli.cn/1691/henan/henanm3u8.php?id=hntv8
河南 I 河南法治,http://player.521fanli.cn/1691/henan/henanm3u8.php?id=hntv4
河南 I 河南乡村,http://player.521fanli.cn/1691/henan/henanm3u8.php?id=hntv9
河南 I 河南国际,http://player.521fanli.cn/1691/henan/henanm3u8.php?id=hntv10
河南 I 河南电视剧,http://player.521fanli.cn/1691/henan/henanm3u8.php?id=hntv5
山东 I 山东新闻,http://119.164.216.162:9901/tsfile/live/1004_1.m3u8
山东 I 山东文旅,http://119.164.216.162:9901/tsfile/live/1001_1.m3u8
山东 I 山东综艺,http://119.164.216.162:9901/tsfile/live/1002_1.m3u8
山东 I 山东少儿,http://119.164.216.162:9901/tsfile/live/1005_1.m3u8
山东 I 山东体育,http://119.164.216.162:9901/tsfile/live/1003_1.m3u8
山东 I 山东潍坊1,http://stream.wfcmw.cn/1/sd/live.m3u8
山东 I 山东潍坊2,http://stream.wfcmw.cn/2/sd/live.m3u8
山东 I 山东潍坊3,http://stream.wfcmw.cn/3/sd/live.m3u8
山东 I 山东潍坊4,http://stream.wfcmw.cn/4/sd/live.m3u8
山东 I 菏泽三套影视频道,http://live.hznet.tv:1935/live/live3/500K/tzwj_video.m3u8
山东 I 德州公共频道,http://video.dztv.tv:1935/live/dzgg_bq/playlist.m3u8
山东 I 德州公共频道SP,http://video.dztv.tv:1935/live/dzgg_sj/playlist.m3u8
山东 I 德州图文频道,http://video.dztv.tv:1935/live/dztw_bq/playlist.m3u8
山东 I 德州图文频道SP,http://video.dztv.tv:1935/live/dztw_gq/playlist.m3u8
山东 I 德州新闻频道,http://video.dztv.tv:1935/live/xwzh_gq/playlist.m3u8
山东 I 滨州新闻综合,http://stream.bzcm.net/2/sd/live.m3u8
山东 I 滨州公共电视剧,http://stream.bzcm.net/1/sd/live.m3u8
山东 I 沂水综合,https://jsylivealone302.iqilu.com/live/yishui_tv01/index.m3u8
山东 I 沂水二套,https://jsylivealone302.iqilu.com/live/yishui_tv02/index.m3u8
湖北 I 张家界公共,http://stream.zjjrtv.com/zjjtv2/hd/live.m3u8
湖北 I 张家界新闻综合,http://stream.zjjrtv.com/zjjtv1/hd/live.m3u8
湖北 I 吉州新闻综合,http://218.204.153.158/10.m3u8
湖南 I 湖南公共,http://180.97.123.180/4309-txt.otvstream.otvcloud.com/otv/skcc/live/channel43020/index.m3u8
湖南 I 湖南国际,http://180.97.123.180/4309-txt.otvstream.otvcloud.com/otv/skcc/live/channel43022/index.m3u8
湖南 I 湖南娱乐,http://180.97.123.180/4309-txt.otvstream.otvcloud.com/otv/skcc/live/channel43027/index.m3u8
湖南 I 湖南快乐垂钓,http://180.97.123.180/4309-txt.otvstream.otvcloud.com/otv/skcc/live/channel43020/index.m3u8
湖南 I 湖南快乐购,http://180.97.123.180/4309-txt.otvstream.otvcloud.com/otv/skcc/live/channel43020/index.m3u8
湖南 I 湖南电影,http://180.97.123.180/4309-txt.otvstream.otvcloud.com/otv/skcc/live/channel43029/index.m3u8
湖南 I 湖南电视剧,http://180.97.123.180/4309-txt.otvstream.otvcloud.com/otv/skcc/live/channel43030/index.m3u8
湖南 I 湖南经视,http://180.97.123.180/4309-txt.otvstream.otvcloud.com/otv/skcc/live/channel43024/index.m3u8
湖南 I 湖南都市,http://180.97.123.180/4309-txt.otvstream.otvcloud.com/otv/skcc/live/channel43028/index.m3u8
湖南 I 湖南金鹰卡通,http://180.97.123.180/4309-txt.otvstream.otvcloud.com/otv/skcc/live/channel43025/index.m3u8
湖南 I 张家界综合,http://stream.zjjrtv.com/zjjtv1/hd/live.m3u8
湖南 I 张家界公共,http://stream.zjjrtv.com/zjjtv2/hd/live.m3u8
湖南 I 湘潭综合,http://live.hnxttv.com:9601/live/xwzh/800K/tzwj_video.m3u8
湖南 I 湘潭综合SP,http://21084.liveplay.myqcloud.com/live/21084_13241b8296ee11e892905cb9018cf0d4.m3u8
湖南 I 娄底综合频道,http://119.39.242.52:1935/live/zonghe/playlist.m3u8
湖南 I 娄底综合频道SP,http://mms.ldntv.cn:1935/live/zonghe/playlist.m3u8
安徽 I 淮北综合台,http://live.0561rtv.cn/xwzh/hd/live.m3u8
安徽 I 淮北公共台,http://live.0561rtv.cn/ggpd/hd/live.m3u8
安徽 I 铜陵综合频道,http://dstpush1.retalltech.com/app/stream1.m3u8
安徽 I 铜陵公共频道,http://dstpush1.retalltech.com/app/stream2.m3u8
安徽 I 铜陵科教频道,http://dstpush1.retalltech.com/app/stream3.m3u8
安徽 I 东至综合台,http://223.247.33.124:1935/live/zonghe/playlist.m3u8
安徽 I 东至影视台,http://223.247.33.124:1935/live/yingshi/playlist.m3u8
四川 I 影视,http://scgctvshow.sctv.com/hdlive/sctv5/1.m3u8
四川 I 新闻,http://scgctvshow.sctv.com/hdlive/sctv4/1.m3u8
四川 I 文旅,http://scgctvshow.sctv.com/hdlive/sctv3/1.m3u8
四川 I 儿童,http://scgctvshow.sctv.com/hdlive/sctv7/1.m3u8
四川 I 经济,http://scgctvshow.sctv.com/hdlive/sctv2/1.m3u8
四川 I 乡村,http://scgctvshow.sctv.com/hdlive/sctv9/1.m3u8
四川 I 成都大熊猫青青,https://gctxyc.liveplay.myqcloud.com/gc/xiongmao20_1_md.m3u8
四川 I 洪雅新闻综合,http://117.172.215.250:8083/videos/live/35/39/GQVbrgob5CGJM/GQVbrgob5CGJM.M3U8
四川 I 岳池综合,http://liveyc.cmc.yuechirmt.cn/live/yctv.m3u8
四川 I 达州综合台,http://m3u8.channellive.dzxw.net/cms/videos/nmip-media/channellive/channel35/playlist.m3u8
四川 I 达州公共台,http://m3u8.channellive.dzxw.net/cms/videos/nmip-media/channellive/channel36/playlist.m3u8
陕西 I 西安新闻台,http://stream2.xiancity.cn/xatv1/sd/live.m3u8
陕西 I 西安白鸽台,http://stream2.xiancity.cn/xatv2/sd/live.m3u8
陕西 I 西安影视台,http://stream2.xiancity.cn/xatv4/sd/live.m3u8
陕西 I 西安丝路台,http://stream2.xiancity.cn/xatv5/sd/live.m3u8
甘肃 I 天水综合,http://stream.tstv.cn/tstv73268A/sd/live.m3u8
甘肃 I 天水公共,http://stream.tstv.cn/tstc938Yn3ggpd/sd/live.m3u8
云南 I 云南都市,https://hwapi.yunshicloud.com/62hdvf/rjwt14.m3u8
云南 I 云南娱乐,http://tvlive.ynradio.com/live/yunnanyule/playlist.m3u8
云南 I 云南生活资讯,https://hwapi.yunshicloud.com/62hdvf/180p57.m3u8
云南 I 云南影视,https://hwapi.yunshicloud.com/62hdvf/utrat7.m3u8
云南 I 云南公共,https://hwapi.yunshicloud.com/62hdvf/227q43.m3u8
云南 I 云南少儿,http://tvlive.ynradio.com/live/yunnanshaoer/playlist.m3u8
云南 I 昆明新闻综合,http://wshls.live.migucloud.com/live/01YCQY7M_C0/playlist.m3u8
云南 I 昆明经济生活,http://wshls.live.migucloud.com/live/JT9JEQ54_C0_2/playlist.m3u8
云南 I 昆明科学教育,http://wshls.live.migucloud.com/live/ZBXWIMTD_C0_2/playlist.m3u8
云南 I 昆明文体娱乐,http://wshls.live.migucloud.com/live/6KN3ZB2S_C0_2/playlist.m3u8
云南 I 昆明影视综艺,http://wshls.live.migucloud.com/live/KYLNJWFD_C0_2/playlist.m3u8
云南 I 昆明公共,http://wshls.live.migucloud.com/live/UD0YLY2G_C0_3/playlist.m3u8
云南 I 楚雄公共,http://hwzbout.yunshicloud.com/gbqei5/12661u.m3u8
云南 I 文山综合,http://m3u8.channel.wsrtv.com.cn/cms/videos/nmip-media/channellive/channel7/playlist.m3u8
云南 I 文山公共,http://m3u8.channel.wsrtv.com.cn/cms/videos/nmip-media/channellive/channel8/playlist.m3u8
云南 I 西双版纳一,http://file.xsbnrtv.cn/vms/videos/nmip-media/channellive/channel1/playlist.m3u8
云南 I 西双版纳二,http://file.xsbnrtv.cn/vms/videos/nmip-media/channellive/channel3/playlist.m3u8
广西 I 南宁综合,http://hls.nntv.cn/nnlive/NNTV_NEWS_A.m3u8
广西 I 南宁都市,http://hls.nntv.cn/nnlive/NNTV_METRO_A.m3u8
广西 I 南宁影视,http://hls.nntv.cn/nnlive/NNTV_VOD_A.m3u8
广西 I 南宁公共,http://hls.nntv.cn/nnlive/NNTV_PUB_A.m3u8
辽宁 I 辽宁都市,http://42.176.185.28:9901/tsfile/live/1005_1.m3u8
辽宁 I 辽宁公共,http://42.176.185.28:9901/tsfile/live/1010_1.m3u8
辽宁 I 辽宁教育,http://42.176.185.28:9901/tsfile/live/1008_1.m3u8
辽宁 I 辽宁经济,http://42.176.185.28:9901/tsfile/live/1009_1.m3u8
辽宁 I 辽宁生活,http://42.176.185.28:9901/tsfile/live/1006_1.m3u8
辽宁 I 辽宁体育,http://42.176.185.28:9901/tsfile/live/1007_1.m3u8
辽宁 I 辽宁影视,http://42.176.185.28:9901/tsfile/live/1012_1.m3u8
黑龙江新闻法治,http://39.135.134.66/ottrrs.hl.chinamobile.com/PLTV/88888888/224/3221226093/1.m3u8
黑龙江公共农业,http://39.135.134.66/ottrrs.hl.chinamobile.com/PLTV/88888888/224/3221226050/1.m3u8
黑龙江都市频道,http://39.135.134.66/ottrrs.hl.chinamobile.com/PLTV/88888888/224/3221226090/1.m3u8
黑龙江文体频道,http://39.135.134.66/ottrrs.hl.chinamobile.com/PLTV/88888888/224/3221226044/1.m3u8
黑龙江影视频道,http://39.135.134.66/ottrrs.hl.chinamobile.com/PLTV/88888888/224/3221226061/1.m3u8
黑龙江少儿频道,http://39.135.134.66/ottrrs.hl.chinamobile.com/PLTV/88888888/224/3221226070/1.m3u8
内蒙古新闻综合,http://live10.m2oplus.nmtv.cn/xwzh/hd/live.m3u8
内蒙古经济生活,http://live10.m2oplus.nmtv.cn/jjsh/hd/live.m3u8
内蒙古文体娱乐,http://live10.m2oplus.nmtv.cn/wtyl/hd/live.m3u8
内蒙古农牧频道,http://live11.m2oplus.nmtv.cn/nmpd/hd/live.m3u8
内蒙古少儿频道,http://live11.m2oplus.nmtv.cn/sepd/hd/live.m3u8
乌兰察布新闻综合,http://pluslive.wrbtv.cn/xwzh/sd/live.m3u8
乌兰察布经济生活,http://pluslive.wrbtv.cn/wrbtv1/sd/live.m3u8
乌兰察布生活频道,http://pluslive.wrbtv.cn/wrbtv3/sd/live.m3u8
九江公共,http://hwrr.jx.chinamobile.com:8080/PLTV/88888888/224/3221225775/index.m3u8
九江公共,http://39.134.115.163:8080/PLTV/88888910/224/3221225775/index.m3u8
九江新闻,http://39.135.138.59:18890/PLTV/88888910/224/3221225774/index.m3u8
九江新闻,http://39.134.115.163:8080/PLTV/88888910/224/3221225774/index.m3u8
